<?xml version="1.0" encoding="UTF-8" standalone="no"?>
<svg
   version="1.1"
   width="367.35001"
   height="367.35001"
   id="svg2"
   xml:space="preserve"
   sodipodi:docname="antifa_agoristen.svg"
   inkscape:version="1.3.2 (1:1.3.2+202311252150+091e20ef0f)"
   xmlns:inkscape="http://www.inkscape.org/namespaces/inkscape"
   xmlns:sodipodi="http://sodipodi.sourceforge.net/DTD/sodipodi-0.dtd"
   xmlns:xlink="http://www.w3.org/1999/xlink"
   xmlns="http://www.w3.org/2000/svg"
   xmlns:svg="http://www.w3.org/2000/svg"><sodipodi:namedview
     id="namedview1"
     pagecolor="#505050"
     bordercolor="#ffffff"
     borderopacity="1"
     inkscape:showpageshadow="0"
     inkscape:pageopacity="0"
     inkscape:pagecheckerboard="1"
     inkscape:deskcolor="#d1d1d1"
     showguides="true"
     inkscape:zoom="3.1196406"
     inkscape:cx="202.90799"
     inkscape:cy="181.91198"
     inkscape:window-width="2560"
     inkscape:window-height="1351"
     inkscape:window-x="0"
     inkscape:window-y="0"
     inkscape:window-maximized="1"
     inkscape:current-layer="svg2"><sodipodi:guide
       position="395.23784,88.792277"
       orientation="0,-1"
       id="guide8"
       inkscape:locked="false" /><sodipodi:guide
       position="193.93259,149.37618"
       orientation="0,-1"
       id="guide9"
       inkscape:locked="false" /></sodipodi:namedview><defs
     id="defs6" /><path
     style="color:#000000;font-style:normal;font-variant:normal;font-weight:normal;font-stretch:normal;font-size:medium;line-height:normal;font-family:'Bitstream Vera Sans';-inkscape-font-specification:'Bitstream Vera Sans';text-indent:0;text-align:start;text-decoration:none;text-decoration-line:none;letter-spacing:normal;word-spacing:normal;text-transform:none;writing-mode:lr-tb;direction:ltr;text-anchor:start;display:inline;overflow:visible;visibility:visible;fill:#000000;fill-opacity:1;stroke:none;stroke-width:40.748;marker:none;enable-background:accumulate"
     d="M 184.24831,362.39977 C 85.495293,362.51143 4.912097,282.11142 4.8004288,183.35725 4.688759,84.602702 85.089844,4.0163523 183.84293,3.9046836 282.59745,3.7930129 363.18384,84.197353 363.29551,182.95187 c 0.11167,98.75414 -80.29275,179.33622 -179.0472,179.4479 z"
     id="path20" /><path
     style="color:#000000;font-style:normal;font-variant:normal;font-weight:normal;font-stretch:normal;font-size:medium;line-height:normal;font-family:'Bitstream Vera Sans';-inkscape-font-specification:'Bitstream Vera Sans';text-indent:0;text-align:start;text-decoration:none;text-decoration-line:none;letter-spacing:normal;word-spacing:normal;text-transform:none;writing-mode:lr-tb;direction:ltr;text-anchor:start;display:inline;overflow:visible;visibility:visible;fill:#ffffff;fill-opacity:1;stroke:none;stroke-width:40.748;marker:none;enable-background:accumulate"
     d="M 184.20221,321.65135 C 260.93566,321.56459 322.63386,259.73081 322.5471,182.99795 322.46033,106.2646 260.62236,44.566333 183.88902,44.653103 107.15751,44.739869 45.462071,106.57785 45.548838,183.31118 c 0.08677,76.73283 61.921822,138.42695 138.653402,138.34017 z"
     id="path9" /><path
     id="path6-8"
     d="M 41.972082,278.55773 A 170.54,170.54 0 0 0 278.55873,325.37392 170.54,170.54 0 0 0 325.37492,88.787272 170.54,170.54 0 0 0 88.788272,41.971082 170.54,170.54 0 0 0 41.972082,278.55773 Z"
     fill="none"
     stroke-width="1.1241"
     style="fill:none" /><text
     fill="#ffffff"
     font-family="jost"
     font-size="32px"
     letter-spacing="2px"
     word-spacing="0px"
     style="line-height:0"
     xml:space="preserve"
     id="text10"><textPath
       fill="#ffffff"
       font-family="Jost"
       font-size="32px"
       font-weight="600"
       letter-spacing="2px"
       style="font-variant-ligatures:normal;font-variant-caps:normal;font-variant-numeric:normal;font-variant-east-asian:normal"
       xlink:href="#path6-8"
       id="textPath10">AGORISTEN ANTIFA</textPath></text><circle
     id="circle10"
     transform="rotate(90.224549)"
     cx="182.94934"
     cy="-184.40392"
     r="147.09"
     fill="none"
     stroke-width="0.96956"
     style="fill:none" /><text
     fill="#ffffff"
     font-family="jost"
     font-size="32px"
     letter-spacing="0px"
     text-align="center"
     text-anchor="middle"
     word-spacing="0px"
     style="line-height:0"
     xml:space="preserve"
     id="text11"><textPath
       xlink:href="#circle10"
       startOffset="50%"
       id="textPath11"
       style="font-style:normal;font-variant:normal;font-weight:600;font-stretch:normal;font-family:Jost;-inkscape-font-specification:'Jost Semi-Bold'">ZOLL UND STEUER KÖNN UNS MA'!</textPath></text><path
     id="path22-2"
     style="fill:#000000;fill-opacity:1;fill-rule:nonzero;stroke:none;stroke-width:0.15"
     d="M 252.83574,222.37249 C 243.58514,159.47641 223.60763,149.0608 192.66659,140.11699 161.72557,131.17316 109.79273,112.08943 89.586606,87.149884 69.267036,109.64512 53.566148,138.60355 50.527231,172.0871 c -0.0888,0.97798 0.151115,1.52912 0.310268,2.49815 6.873673,5.62711 56.372361,52.11819 125.441951,27.45208 27.93454,-9.97541 46.56091,1.26398 70.61928,16.27163 3.91425,2.44214 3.67551,2.40294 5.93701,4.06353 z"
     sodipodi:nodetypes="czcscccc" /><path
     id="path3"
     style="fill:#808080;fill-opacity:1;fill-rule:nonzero;stroke:none;stroke-width:0.15"
     d="m 260.0586,90.776207 c -25.95438,-10.102946 -47.50294,9.672813 -69.69273,15.604503 -34.09477,9.11255 -65.47614,6.7175 -94.220311,-12.353304 -3.088462,-2.049947 -4.147521,-4.061273 -6.558953,-6.877522 5.297232,9.190544 35.997734,73.883166 94.461364,73.087196 23.64503,-0.3213 45.31838,28.319 64.16126,55.1099 3.06568,4.35931 2.87138,4.22056 4.62651,7.02551 l -29.71531,89.99096 c 0,0 6.73595,-2.2771 9.45689,-3.44354 2.72096,-1.16644 6.79622,-3.42594 6.79622,-3.42594 l 65.67464,-181.57944 -5.31067,-3.12665 C 283.80443,106.40851 276.93157,97.343878 260.0586,90.776207 Z"
     sodipodi:nodetypes="ccccccccscccc" /><path
     d="m 217.84006,209.23629 -39.18918,108.14563 c -1.93351,0.079 -3.03302,0.0922 -4.95897,-0.0848 -3.4349,-0.3162 -5.38776,-0.74401 -8.64543,-1.87765 l 19.96659,-59.00479 -3.12532,-2.18885 c -11.56067,-4.3781 -16.78102,-8.10454 -32.18508,-5.32197 -32.81431,5.92725 -75.712006,-9.42042 -91.748111,-42.97614 -3.434903,-7.18905 -5.344736,-10.49114 -6.495547,-17.78448 -0.473682,-3.00314 -0.626151,-4.73119 -0.622821,-7.77169 31.548238,26.13516 63.454279,39.36924 107.002899,31.9723 20.46257,-3.47524 33.50985,-14.17221 52.81402,-6.54633 2.89015,1.14237 4.49342,1.88991 7.18694,3.43874"
     id="path24-7"
     style="fill:#000000;fill-opacity:1;fill-rule:nonzero;stroke:none;stroke-width:0.15" /></svg>
